tutorial_1.knit
…
Como objetos sf se integram bem com pacotes no tidyverse muito utilizado para preparação e manipulação de dados. Isto faz com que os objetos sf sejam facilmente manipulados. Aqui estão alguns exemplos simples:

1.7.1 select()

select(CD_MUN, NM_MUN): Utiliza a função select da biblioteca dplyr para escolher apenas as colunas CD_MUN e NM_MUN do conjunto de dados mg_muns.

mg_muns %>%  select(CD_MUN, NM_MUN)

## Simple feature collection with 853 features and 2 fields
## Geometry type: POLYGON
## Dimension:     XY
## Bounding box:  xmin: -51.04608 ymin: -22.92276 xmax: -39.85683 ymax: -14.23318
## Geodetic CRS:  SIRGAS 2000
## # A tibble: 853 × 3
##    CD_MUN  NM_MUN                                                             geometry
##    <chr>   <chr>                                                         <POLYGON [°]>
##  1 3100104 Abadia dos Dourados ((-47.45335 -18.46925, -47.45341 -18.46897, -47.45342 …
##  2 3100203 Abaeté              ((-45.50026 -19.22585, -45.50024 -19.22578, -45.50019 …
##  3 3100302 Abre Campo          ((-42.42074 -20.39718, -42.42076 -20.39719, -42.42094 …
##  4 3100401 Acaiaca             ((-43.12231 -20.43351, -43.12239 -20.43343, -43.12245 …
##  5 3100500 Açucena             ((-42.43777 -19.17542, -42.43781 -19.1754, -42.43782 -…
##  6 3100609 Água Boa            ((-42.32275 -18.17543, -42.3229 -18.17546, -42.32331 -…
##  7 3100708 Água Comprida       ((-48.12686 -19.9863, -48.12721 -19.98594, -48.12711 -…
##  8 3100807 Aguanil             ((-45.4196 -21.02239, -45.42019 -21.02226, -45.4205 -2…
##  9 3100906 Águas Formosas      ((-40.78501 -17.072, -40.78491 -17.0726, -40.78482 -17…
## 10 3101003 Águas Vermelhas     ((-41.50309 -15.52667, -41.50264 -15.52646, -41.50257 …
## # ℹ 843 more rows
…
